-- Merging decision tree log ---
manifest
ADDED from /Users/frankielin/Desktop/Spring 2017/CS213/Androidworkplace/Chess38/app/src/main/AndroidManifest.xml:2:1-47:12
	package
		ADDED from /Users/frankielin/Desktop/Spring 2017/CS213/Androidworkplace/Chess38/app/src/main/AndroidManifest.xml:3:5-37
		INJECTED from /Users/frankielin/Desktop/Spring 2017/CS213/Androidworkplace/Chess38/app/src/main/AndroidManifest.xml
		INJECTED from /Users/frankielin/Desktop/Spring 2017/CS213/Androidworkplace/Chess38/app/src/main/AndroidManifest.xml
	android:versionName
		ADDED from /Users/frankielin/Desktop/Spring 2017/CS213/Androidworkplace/Chess38/app/src/main/AndroidManifest.xml:5:5-30
		INJECTED from /Users/frankielin/Desktop/Spring 2017/CS213/Androidworkplace/Chess38/app/src/main/AndroidManifest.xml
		INJECTED from /Users/frankielin/Desktop/Spring 2017/CS213/Androidworkplace/Chess38/app/src/main/AndroidManifest.xml
	android:versionCode
		ADDED from /Users/frankielin/Desktop/Spring 2017/CS213/Androidworkplace/Chess38/app/src/main/AndroidManifest.xml:4:5-28
		INJECTED from /Users/frankielin/Desktop/Spring 2017/CS213/Androidworkplace/Chess38/app/src/main/AndroidManifest.xml
		INJECTED from /Users/frankielin/Desktop/Spring 2017/CS213/Androidworkplace/Chess38/app/src/main/AndroidManifest.xml
	xmlns:android
		ADDED from /Users/frankielin/Desktop/Spring 2017/CS213/Androidworkplace/Chess38/app/src/main/AndroidManifest.xml:2:11-69
uses-sdk
ADDED from /Users/frankielin/Desktop/Spring 2017/CS213/Androidworkplace/Chess38/app/src/main/AndroidManifest.xml:7:5-9:41
MERGED from [com.android.support.constraint:constraint-layout:1.0.2] /Users/frankielin/.android/build-cache/0bb978b0a9e78203b006600c2bdb48b74b5e2f6a/output/AndroidManifest.xml:5:5-7:41
MERGED from [com.android.support:design:25.3.1] /Users/frankielin/.android/build-cache/7aebf2f3b06ba0d637421fcf59f9901f4bf26e42/output/AndroidManifest.xml:21:5-23:62
MERGED from [com.android.support:appcompat-v7:25.3.1] /Users/frankielin/.android/build-cache/e83769377fd13a27dd1af4c64acb7d1352cda56b/output/AndroidManifest.xml:21:5-23:78
MERGED from [com.android.support:animated-vector-drawable:25.3.1] /Users/frankielin/.android/build-cache/cfb230575f9ea5c2dcd698347efea20fad3fb3f3/output/AndroidManifest.xml:20:5-44
MERGED from [com.android.support:support-vector-drawable:25.3.1] /Users/frankielin/.android/build-cache/3af5d6fb4145823ff1ac3382ff982610f7e0d837/output/AndroidManifest.xml:20:5-43
MERGED from [com.android.support:recyclerview-v7:25.3.1] /Users/frankielin/.android/build-cache/63de0fb3470ae0c4bd7b431b02e3c46ff9a381e5/output/AndroidManifest.xml:20:5-43
MERGED from [com.android.support:transition:25.3.1] /Users/frankielin/.android/build-cache/715c5007da040d5d882a22d1a2b3974b8fd972ee/output/AndroidManifest.xml:20:5-44
MERGED from [com.android.support:support-v4:25.3.1] /Users/frankielin/.android/build-cache/8c6fcc85c575cd68bc728bab65c9ccb447f8a06f/output/AndroidManifest.xml:21:5-23:54
MERGED from [com.android.support:support-fragment:25.3.1] /Users/frankielin/.android/build-cache/7b9e2c78867dfb11f8d13b042c8f6260982f772b/output/AndroidManifest.xml:21:5-23:60
MERGED from [com.android.support:support-media-compat:25.3.1] /Users/frankielin/.android/build-cache/6e3a5d2ca5d66ef1bfd8f15e9525cdd397c6f848/output/AndroidManifest.xml:21:5-23:63
MERGED from [com.android.support:support-core-ui:25.3.1] /Users/frankielin/.android/build-cache/f16c36347928c941722e097c0c6d92d8046d8b04/output/AndroidManifest.xml:21:5-23:58
MERGED from [com.android.support:support-core-utils:25.3.1] /Users/frankielin/.android/build-cache/751131863a01890e558d5f3202727b987ac8c817/output/AndroidManifest.xml:21:5-23:61
MERGED from [com.android.support:support-compat:25.3.1] /Users/frankielin/.android/build-cache/f7ee92d6da9bf912c454a6b245d5279cb3335a9b/output/AndroidManifest.xml:21:5-23:58
	tools:overrideLibrary
		ADDED from [com.android.support:design:25.3.1] /Users/frankielin/.android/build-cache/7aebf2f3b06ba0d637421fcf59f9901f4bf26e42/output/AndroidManifest.xml:23:9-59
	android:targetSdkVersion
		ADDED from /Users/frankielin/Desktop/Spring 2017/CS213/Androidworkplace/Chess38/app/src/main/AndroidManifest.xml:9:9-38
		INJECTED from /Users/frankielin/Desktop/Spring 2017/CS213/Androidworkplace/Chess38/app/src/main/AndroidManifest.xml
		INJECTED from /Users/frankielin/Desktop/Spring 2017/CS213/Androidworkplace/Chess38/app/src/main/AndroidManifest.xml
	android:minSdkVersion
		ADDED from /Users/frankielin/Desktop/Spring 2017/CS213/Androidworkplace/Chess38/app/src/main/AndroidManifest.xml:8:9-35
		INJECTED from /Users/frankielin/Desktop/Spring 2017/CS213/Androidworkplace/Chess38/app/src/main/AndroidManifest.xml
		INJECTED from /Users/frankielin/Desktop/Spring 2017/CS213/Androidworkplace/Chess38/app/src/main/AndroidManifest.xml
application
ADDED from /Users/frankielin/Desktop/Spring 2017/CS213/Androidworkplace/Chess38/app/src/main/AndroidManifest.xml:11:5-45:19
MERGED from [com.android.support.constraint:constraint-layout:1.0.2] /Users/frankielin/.android/build-cache/0bb978b0a9e78203b006600c2bdb48b74b5e2f6a/output/AndroidManifest.xml:9:5-20
MERGED from [com.android.support:design:25.3.1] /Users/frankielin/.android/build-cache/7aebf2f3b06ba0d637421fcf59f9901f4bf26e42/output/AndroidManifest.xml:29:5-20
MERGED from [com.android.support:appcompat-v7:25.3.1] /Users/frankielin/.android/build-cache/e83769377fd13a27dd1af4c64acb7d1352cda56b/output/AndroidManifest.xml:29:5-20
MERGED from [com.android.support:animated-vector-drawable:25.3.1] /Users/frankielin/.android/build-cache/cfb230575f9ea5c2dcd698347efea20fad3fb3f3/output/AndroidManifest.xml:26:5-20
MERGED from [com.android.support:support-vector-drawable:25.3.1] /Users/frankielin/.android/build-cache/3af5d6fb4145823ff1ac3382ff982610f7e0d837/output/AndroidManifest.xml:26:5-20
MERGED from [com.android.support:transition:25.3.1] /Users/frankielin/.android/build-cache/715c5007da040d5d882a22d1a2b3974b8fd972ee/output/AndroidManifest.xml:26:5-20
MERGED from [com.android.support:support-v4:25.3.1] /Users/frankielin/.android/build-cache/8c6fcc85c575cd68bc728bab65c9ccb447f8a06f/output/AndroidManifest.xml:29:5-20
MERGED from [com.android.support:support-fragment:25.3.1] /Users/frankielin/.android/build-cache/7b9e2c78867dfb11f8d13b042c8f6260982f772b/output/AndroidManifest.xml:29:5-20
MERGED from [com.android.support:support-media-compat:25.3.1] /Users/frankielin/.android/build-cache/6e3a5d2ca5d66ef1bfd8f15e9525cdd397c6f848/output/AndroidManifest.xml:29:5-20
MERGED from [com.android.support:support-core-ui:25.3.1] /Users/frankielin/.android/build-cache/f16c36347928c941722e097c0c6d92d8046d8b04/output/AndroidManifest.xml:29:5-20
MERGED from [com.android.support:support-core-utils:25.3.1] /Users/frankielin/.android/build-cache/751131863a01890e558d5f3202727b987ac8c817/output/AndroidManifest.xml:29:5-20
MERGED from [com.android.support:support-compat:25.3.1] /Users/frankielin/.android/build-cache/f7ee92d6da9bf912c454a6b245d5279cb3335a9b/output/AndroidManifest.xml:29:5-20
	android:label
		ADDED from /Users/frankielin/Desktop/Spring 2017/CS213/Androidworkplace/Chess38/app/src/main/AndroidManifest.xml:14:9-41
	android:allowBackup
		ADDED from /Users/frankielin/Desktop/Spring 2017/CS213/Androidworkplace/Chess38/app/src/main/AndroidManifest.xml:12:9-35
	android:icon
		ADDED from /Users/frankielin/Desktop/Spring 2017/CS213/Androidworkplace/Chess38/app/src/main/AndroidManifest.xml:13:9-43
	android:theme
		ADDED from /Users/frankielin/Desktop/Spring 2017/CS213/Androidworkplace/Chess38/app/src/main/AndroidManifest.xml:15:9-40
activity#com.group38.activities.HomeActivity
ADDED from /Users/frankielin/Desktop/Spring 2017/CS213/Androidworkplace/Chess38/app/src/main/AndroidManifest.xml:16:9-24:20
	android:label
		ADDED from /Users/frankielin/Desktop/Spring 2017/CS213/Androidworkplace/Chess38/app/src/main/AndroidManifest.xml:18:13-45
	android:name
		ADDED from /Users/frankielin/Desktop/Spring 2017/CS213/Androidworkplace/Chess38/app/src/main/AndroidManifest.xml:17:13-63
intent-filter#android.intent.action.MAIN+android.intent.category.LAUNCHER
ADDED from /Users/frankielin/Desktop/Spring 2017/CS213/Androidworkplace/Chess38/app/src/main/AndroidManifest.xml:19:13-23:29
action#android.intent.action.MAIN
ADDED from /Users/frankielin/Desktop/Spring 2017/CS213/Androidworkplace/Chess38/app/src/main/AndroidManifest.xml:20:17-69
	android:name
		ADDED from /Users/frankielin/Desktop/Spring 2017/CS213/Androidworkplace/Chess38/app/src/main/AndroidManifest.xml:20:25-66
category#android.intent.category.LAUNCHER
ADDED from /Users/frankielin/Desktop/Spring 2017/CS213/Androidworkplace/Chess38/app/src/main/AndroidManifest.xml:22:17-77
	android:name
		ADDED from /Users/frankielin/Desktop/Spring 2017/CS213/Androidworkplace/Chess38/app/src/main/AndroidManifest.xml:22:27-74
activity#com.group38.activities.ChessActivity
ADDED from /Users/frankielin/Desktop/Spring 2017/CS213/Androidworkplace/Chess38/app/src/main/AndroidManifest.xml:25:9-32:20
	android:label
		ADDED from /Users/frankielin/Desktop/Spring 2017/CS213/Androidworkplace/Chess38/app/src/main/AndroidManifest.xml:27:13-57
	android:parentActivityName
		ADDED from /Users/frankielin/Desktop/Spring 2017/CS213/Androidworkplace/Chess38/app/src/main/AndroidManifest.xml:28:13-77
	android:name
		ADDED from /Users/frankielin/Desktop/Spring 2017/CS213/Androidworkplace/Chess38/app/src/main/AndroidManifest.xml:26:13-64
meta-data#android.support.PARENT_ACTIVITY
ADDED from /Users/frankielin/Desktop/Spring 2017/CS213/Androidworkplace/Chess38/app/src/main/AndroidManifest.xml:29:13-31:71
	android:value
		ADDED from /Users/frankielin/Desktop/Spring 2017/CS213/Androidworkplace/Chess38/app/src/main/AndroidManifest.xml:31:17-68
	android:name
		ADDED from /Users/frankielin/Desktop/Spring 2017/CS213/Androidworkplace/Chess38/app/src/main/AndroidManifest.xml:30:17-63
activity#com.group38.activities.GameListActivity
ADDED from /Users/frankielin/Desktop/Spring 2017/CS213/Androidworkplace/Chess38/app/src/main/AndroidManifest.xml:33:9-40:20
	android:label
		ADDED from /Users/frankielin/Desktop/Spring 2017/CS213/Androidworkplace/Chess38/app/src/main/AndroidManifest.xml:35:13-61
	android:parentActivityName
		ADDED from /Users/frankielin/Desktop/Spring 2017/CS213/Androidworkplace/Chess38/app/src/main/AndroidManifest.xml:36:13-77
	android:name
		ADDED from /Users/frankielin/Desktop/Spring 2017/CS213/Androidworkplace/Chess38/app/src/main/AndroidManifest.xml:34:13-67
activity#com.group38.activities.ReplayActivity
ADDED from /Users/frankielin/Desktop/Spring 2017/CS213/Androidworkplace/Chess38/app/src/main/AndroidManifest.xml:41:9-44:20
	android:label
		ADDED from /Users/frankielin/Desktop/Spring 2017/CS213/Androidworkplace/Chess38/app/src/main/AndroidManifest.xml:43:13-58
	android:name
		ADDED from /Users/frankielin/Desktop/Spring 2017/CS213/Androidworkplace/Chess38/app/src/main/AndroidManifest.xml:42:13-65
meta-data#android.support.VERSION
ADDED from [com.android.support:design:25.3.1] /Users/frankielin/.android/build-cache/7aebf2f3b06ba0d637421fcf59f9901f4bf26e42/output/AndroidManifest.xml:25:5-27:34
MERGED from [com.android.support:appcompat-v7:25.3.1] /Users/frankielin/.android/build-cache/e83769377fd13a27dd1af4c64acb7d1352cda56b/output/AndroidManifest.xml:25:5-27:34
MERGED from [com.android.support:animated-vector-drawable:25.3.1] /Users/frankielin/.android/build-cache/cfb230575f9ea5c2dcd698347efea20fad3fb3f3/output/AndroidManifest.xml:22:5-24:34
MERGED from [com.android.support:support-vector-drawable:25.3.1] /Users/frankielin/.android/build-cache/3af5d6fb4145823ff1ac3382ff982610f7e0d837/output/AndroidManifest.xml:22:5-24:34
MERGED from [com.android.support:recyclerview-v7:25.3.1] /Users/frankielin/.android/build-cache/63de0fb3470ae0c4bd7b431b02e3c46ff9a381e5/output/AndroidManifest.xml:22:5-24:34
MERGED from [com.android.support:transition:25.3.1] /Users/frankielin/.android/build-cache/715c5007da040d5d882a22d1a2b3974b8fd972ee/output/AndroidManifest.xml:22:5-24:34
MERGED from [com.android.support:support-v4:25.3.1] /Users/frankielin/.android/build-cache/8c6fcc85c575cd68bc728bab65c9ccb447f8a06f/output/AndroidManifest.xml:25:5-27:34
MERGED from [com.android.support:support-fragment:25.3.1] /Users/frankielin/.android/build-cache/7b9e2c78867dfb11f8d13b042c8f6260982f772b/output/AndroidManifest.xml:25:5-27:34
MERGED from [com.android.support:support-media-compat:25.3.1] /Users/frankielin/.android/build-cache/6e3a5d2ca5d66ef1bfd8f15e9525cdd397c6f848/output/AndroidManifest.xml:25:5-27:34
MERGED from [com.android.support:support-core-ui:25.3.1] /Users/frankielin/.android/build-cache/f16c36347928c941722e097c0c6d92d8046d8b04/output/AndroidManifest.xml:25:5-27:34
MERGED from [com.android.support:support-core-utils:25.3.1] /Users/frankielin/.android/build-cache/751131863a01890e558d5f3202727b987ac8c817/output/AndroidManifest.xml:25:5-27:34
MERGED from [com.android.support:support-compat:25.3.1] /Users/frankielin/.android/build-cache/f7ee92d6da9bf912c454a6b245d5279cb3335a9b/output/AndroidManifest.xml:25:5-27:34
	android:value
		ADDED from [com.android.support:design:25.3.1] /Users/frankielin/.android/build-cache/7aebf2f3b06ba0d637421fcf59f9901f4bf26e42/output/AndroidManifest.xml:27:9-31
	android:name
		ADDED from [com.android.support:design:25.3.1] /Users/frankielin/.android/build-cache/7aebf2f3b06ba0d637421fcf59f9901f4bf26e42/output/AndroidManifest.xml:26:9-47
